^B:\PROJECTS\STUDY\RAYTRACER\SAMPLE3_RT\GLUS\DEBUG\GLUS_LOAD.OBJ|B:\PROJECTS\STUDY\RAYTRACER\SAMPLE3_RT\GLUS\DEBUG\GLUS_MATRIX.OBJ|B:\PROJECTS\STUDY\RAYTRACER\SAMPLE3_RT\GLUS\DEBUG\GLUS_MODELVIEW.OBJ|B:\PROJECTS\STUDY\RAYTRACER\SAMPLE3_RT\GLUS\DEBUG\GLUS_SHADERPROGRAM.OBJ|B:\PROJECTS\STUDY\RAYTRACER\SAMPLE3_RT\GLUS\DEBUG\GLUS_SHAPE.OBJ|B:\PROJECTS\STUDY\RAYTRACER\SAMPLE3_RT\GLUS\DEBUG\GLUS_VECTOR.OBJ|B:\PROJECTS\STUDY\RAYTRACER\SAMPLE3_RT\GLUS\DEBUG\GLUS_WINDOWS.OBJ
B:\PROJECTS\STUDY\RAYTRACER\SAMPLE3_RT\GLUS\DEBUG\GLUS_LOAD.OBJ
C:\WINDOWS\SYSTEM32\TZRES.DLL
B:\PROJECTS\STUDY\RAYTRACER\SAMPLE3_RT\GLUS\DEBUG\GLUS_MATRIX.OBJ
B:\PROJECTS\STUDY\RAYTRACER\SAMPLE3_RT\GLUS\DEBUG\GLUS_MODELVIEW.OBJ
B:\PROJECTS\STUDY\RAYTRACER\SAMPLE3_RT\GLUS\DEBUG\GLUS_SHADERPROGRAM.OBJ
B:\PROJECTS\STUDY\RAYTRACER\SAMPLE3_RT\GLUS\DEBUG\GLUS_SHAPE.OBJ
B:\PROJECTS\STUDY\RAYTRACER\SAMPLE3_RT\GLUS\DEBUG\GLUS_VECTOR.OBJ
B:\PROJECTS\STUDY\RAYTRACER\SAMPLE3_RT\GLUS\DEBUG\GLUS_WINDOWS.OBJ
C:\WINDOWS\GLOBALIZATION\SORTING\SORTDEFAULT.NLS
